p32_switchLevel_Gates/run.log
# vsim -l run.log work.tb_and 
# Loading work.tb_and
# Loading work.my_and
# Loading work.my_nand
# Loading work.my_not
# a=0 B =0 y=0
# a=0 B =1 y=0
# a=1 B =0 y=0
# a=1 B =1 y=1
do run.do exor
# ** Warning: (vlib-34) Library already exists at "work".
# Model Technology ModelSim ALTERA vlog 6.3g_p1 Compiler 2008.08 Aug 13 2008
# -- Compiling module my_not
# -- Compiling module tb_not
# 
# Top level modules:
# 	tb_not
# Model Technology ModelSim ALTERA vlog 6.3g_p1 Compiler 2008.08 Aug 13 2008
# -- Compiling module my_nand
# -- Compiling module tb_nand
# 
# Top level modules:
# 	tb_nand
# Model Technology ModelSim ALTERA vlog 6.3g_p1 Compiler 2008.08 Aug 13 2008
# -- Compiling module my_not
# -- Compiling module my_nand
# -- Compiling module my_and
# -- Compiling module tb_and
# 
# Top level modules:
# 	tb_and
# Model Technology ModelSim ALTERA vlog 6.3g_p1 Compiler 2008.08 Aug 13 2008
# -- Compiling module my_nand
# -- Compiling module my_exor
# -- Compiling module tb_exor
# 
# Top level modules:
# 	tb_exor
# Model Technology ModelSim ALTERA vlog 6.3g_p1 Compiler 2008.08 Aug 13 2008
# -- Compiling module my_not
# -- Compiling module my_nor
# -- Compiling module my_or
# -- Compiling module tb_or
# 
# Top level modules:
# 	tb_or
# vsim -l run.log work.tb_exor 
# Loading work.tb_exor
# Loading work.my_exor
# Loading work.my_nand
# a=0 B =0 y=0
# a=0 B =1 y=1
# a=1 B =0 y=1
# a=1 B =1 y=0
quit -sim
cd {C:\Users\alisy\Documents\verilog\class5\10today_tomDate}
cd {C:\Users\alisy\Documents\GIT_HUB\Verilog\p33_todayTomorrow\M1\tod_tom.v}
# couldn't change working directory to "C:\Users\alisy\Documents\GIT_HUB\Verilog\p33_todayTomorrow\M1\tod_tom.v": no such file or directory
cd {C:\Users\alisy\Documents\GIT_HUB\Verilog\p33_todayTomorrow\M1}
do run.do 
# Model Technology ModelSim ALTERA vlog 6.3g_p1 Compiler 2008.08 Aug 13 2008
# ** Error: (vlog-7) Failed to open design unit file "tod_tom_v2.v" in read mode.
# No such file or directory. (errno = ENOENT)
# ** Error: C:/altera/81/modelsim_ae/win32aloem/vlog failed.
# Error in macro ./run.do line 5
# C:/altera/81/modelsim_ae/win32aloem/vlog failed.
#     while executing
# "vlog tod_tom_v2.v"
do run.do
# ** Warning: (vlib-34) Library already exists at "work".
# Model Technology ModelSim ALTERA vlog 6.3g_p1 Compiler 2008.08 Aug 13 2008
# -- Compiling module today_tom
# -- Compiling module tb
# 
# Top level modules:
# 	tb
# vsim work.tb 
# Loading work.tb
# Loading work.today_tom
#  today = 0 tomorrow = 1 err =1
#  today = 1 tomorrow = 2 err =0
#  today = 2 tomorrow = 3 err =0
#  today = 3 tomorrow = 4 err =0
#  today = 4 tomorrow = 5 err =0
#  today = 5 tomorrow = 6 err =0
#  today = 6 tomorrow = 7 err =0
#  today = 7 tomorrow = 8 err =0
#  today = 8 tomorrow = 9 err =0
#  today = 9 tomorrow =10 err =0
#  today =10 tomorrow =11 err =0
#  today =11 tomorrow =12 err =0
#  today =12 tomorrow =13 err =0
#  today =13 tomorrow =14 err =0
#  today =14 tomorrow =15 err =0
#  today =15 tomorrow =16 err =0
#  today =16 tomorrow =17 err =0
#  today =17 tomorrow =18 err =0
#  today =18 tomorrow =19 err =0
#  today =19 tomorrow =20 err =0
#  today =20 tomorrow =21 err =0
#  today =21 tomorrow =22 err =0
#  today =22 tomorrow =23 err =0
#  today =23 tomorrow =24 err =0
#  today =24 tomorrow =25 err =0
#  today =25 tomorrow =26 err =0
#  today =26 tomorrow =27 err =0
#  today =27 tomorrow =28 err =0
#  today =28 tomorrow =29 err =0
#  today =29 tomorrow =30 err =0
#  today =30 tomorrow = 1 err =0
#  today =31 tomorrow = 0 err =1
#  today = 0 tomorrow = 1 err =1
#  today = 1 tomorrow = 2 err =0
#  today = 2 tomorrow = 3 err =0
#  today = 3 tomorrow = 4 err =0
#  today = 4 tomorrow = 5 err =0
#  today = 5 tomorrow = 6 err =0
quit -sim
cd ../M2
do run.do 
# Model Technology ModelSim ALTERA vlog 6.3g_p1 Compiler 2008.08 Aug 13 2008
# -- Compiling module today_tom
# -- Compiling module tb
# 
# Top level modules:
# 	tb
# vsim work.tb 
# Loading work.tb
# Loading work.today_tom
#  x = 0 today = 0 tomorrow = 1 err =1
#  x = 0 today = 1 tomorrow = 2 err =0
#  x = 0 today = 2 tomorrow = 3 err =0
#  x = 0 today = 3 tomorrow = 4 err =0
#  x = 0 today = 4 tomorrow = 5 err =0
#  x = 0 today = 5 tomorrow = 6 err =0
#  x = 0 today = 6 tomorrow = 7 err =0
#  x = 0 today = 7 tomorrow = 8 err =0
#  x = 0 today = 8 tomorrow = 9 err =0
#  x = 0 today = 9 tomorrow =10 err =0
#  x = 0 today =10 tomorrow =11 err =0
#  x = 0 today =11 tomorrow =12 err =0
#  x = 0 today =12 tomorrow =13 err =0
#  x = 0 today =13 tomorrow =14 err =0
#  x = 0 today =14 tomorrow =15 err =0
#  x = 0 today =15 tomorrow =16 err =0
#  x = 0 today =16 tomorrow =17 err =0
#  x = 0 today =17 tomorrow =18 err =0
#  x = 0 today =18 tomorrow =19 err =0
#  x = 0 today =19 tomorrow =20 err =0
#  x = 0 today =20 tomorrow =21 err =0
#  x = 0 today =21 tomorrow =22 err =0
#  x = 0 today =22 tomorrow =23 err =0
#  x = 0 today =23 tomorrow =24 err =0
#  x = 0 today =24 tomorrow =25 err =0
#  x = 0 today =25 tomorrow =26 err =0
#  x = 0 today =26 tomorrow =27 err =0
#  x = 0 today =27 tomorrow =28 err =0
#  x = 0 today =28 tomorrow =29 err =0
#  x = 0 today =29 tomorrow =30 err =0
#  x = 0 today =30 tomorrow = 1 err =0
#  x = 0 today =31 tomorrow = 0 err =1
#  x = 0 today = 0 tomorrow = 1 err =1
#  x = 0 today = 1 tomorrow = 2 err =0
#  x = 0 today = 2 tomorrow = 3 err =0
#  x = 0 today = 3 tomorrow = 4 err =0
#  x = 0 today = 4 tomorrow = 5 err =0
#  x = 0 today = 5 tomorrow = 6 err =0
#  x = 1 today = 0 tomorrow = 1 err =1
#  x = 1 today = 1 tomorrow = 2 err =0
#  x = 1 today = 2 tomorrow = 3 err =0
#  x = 1 today = 3 tomorrow = 4 err =0
#  x = 1 today = 4 tomorrow = 5 err =0
#  x = 1 today = 5 tomorrow = 6 err =0
#  x = 1 today = 6 tomorrow = 7 err =0
#  x = 1 today = 7 tomorrow = 8 err =0
#  x = 1 today = 8 tomorrow = 9 err =0
#  x = 1 today = 9 tomorrow =10 err =0
#  x = 1 today =10 tomorrow =11 err =0
#  x = 1 today =11 tomorrow =12 err =0
#  x = 1 today =12 tomorrow =13 err =0
#  x = 1 today =13 tomorrow =14 err =0
#  x = 1 today =14 tomorrow =15 err =0
#  x = 1 today =15 tomorrow =16 err =0
#  x = 1 today =16 tomorrow =17 err =0
#  x = 1 today =17 tomorrow =18 err =0
#  x = 1 today =18 tomorrow =19 err =0
#  x = 1 today =19 tomorrow =20 err =0
#  x = 1 today =20 tomorrow =21 err =0
#  x = 1 today =21 tomorrow =22 err =0
#  x = 1 today =22 tomorrow =23 err =0
#  x = 1 today =23 tomorrow =24 err =0
#  x = 1 today =24 tomorrow =25 err =0
#  x = 1 today =25 tomorrow =26 err =0
#  x = 1 today =26 tomorrow =27 err =0
#  x = 1 today =27 tomorrow =28 err =0
#  x = 1 today =28 tomorrow =29 err =0
#  x = 1 today =29 tomorrow =30 err =0
#  x = 1 today =30 tomorrow =31 err =0
#  x = 1 today =31 tomorrow = 1 err =0
#  x = 1 today = 0 tomorrow = 1 err =1
#  x = 1 today = 1 tomorrow = 2 err =0
#  x = 1 today = 2 tomorrow = 3 err =0
#  x = 1 today = 3 tomorrow = 4 err =0
#  x = 1 today = 4 tomorrow = 5 err =0
#  x = 1 today = 5 tomorrow = 6 err =0
do run.do
# ** Warning: (vlib-34) Library already exists at "work".
# Model Technology ModelSim ALTERA vlog 6.3g_p1 Compiler 2008.08 Aug 13 2008
# -- Compiling module today_tom
# -- Compiling module tb
# 
# Top level modules:
# 	tb
# vsim work.tb 
# Loading work.tb
# Loading work.today_tom
#  x = 0 today = 0 tomorrow = 1 err =1
#  x = 0 today = 1 tomorrow = 2 err =0
#  x = 0 today = 2 tomorrow = 3 err =0
#  x = 0 today = 3 tomorrow = 4 err =0
#  x = 0 today = 4 tomorrow = 5 err =0
#  x = 0 today = 5 tomorrow = 6 err =0
#  x = 0 today = 6 tomorrow = 7 err =0
#  x = 0 today = 7 tomorrow = 8 err =0
#  x = 0 today = 8 tomorrow = 9 err =0
#  x = 0 today = 9 tomorrow =10 err =0
#  x = 0 today =10 tomorrow =11 err =0
#  x = 0 today =11 tomorrow =12 err =0
#  x = 0 today =12 tomorrow =13 err =0
#  x = 0 today =13 tomorrow =14 err =0
#  x = 0 today =14 tomorrow =15 err =0
#  x = 0 today =15 tomorrow =16 err =0
#  x = 0 today =16 tomorrow =17 err =0
#  x = 0 today =17 tomorrow =18 err =0
#  x = 0 today =18 tomorrow =19 err =0
#  x = 0 today =19 tomorrow =20 err =0
#  x = 0 today =20 tomorrow =21 err =0
#  x = 0 today =21 tomorrow =22 err =0
#  x = 0 today =22 tomorrow =23 err =0
#  x = 0 today =23 tomorrow =24 err =0
#  x = 0 today =24 tomorrow =25 err =0
#  x = 0 today =25 tomorrow =26 err =0
#  x = 0 today =26 tomorrow =27 err =0
#  x = 0 today =27 tomorrow =28 err =0
#  x = 0 today =28 tomorrow =29 err =0
#  x = 0 today =29 tomorrow =30 err =0
#  x = 0 today =30 tomorrow = 1 err =0
#  x = 0 today =31 tomorrow = 0 err =1
#  x = 0 today = 0 tomorrow = 1 err =1
#  x = 0 today = 1 tomorrow = 2 err =0
#  x = 0 today = 2 tomorrow = 3 err =0
#  x = 0 today = 3 tomorrow = 4 err =0
#  x = 0 today = 4 tomorrow = 5 err =0
#  x = 0 today = 5 tomorrow = 6 err =0
#  x = 1 today = 0 tomorrow = 1 err =1
#  x = 1 today = 1 tomorrow = 2 err =0
#  x = 1 today = 2 tomorrow = 3 err =0
#  x = 1 today = 3 tomorrow = 4 err =0
#  x = 1 today = 4 tomorrow = 5 err =0
#  x = 1 today = 5 tomorrow = 6 err =0
#  x = 1 today = 6 tomorrow = 7 err =0
#  x = 1 today = 7 tomorrow = 8 err =0
#  x = 1 today = 8 tomorrow = 9 err =0
#  x = 1 today = 9 tomorrow =10 err =0
#  x = 1 today =10 tomorrow =11 err =0
#  x = 1 today =11 tomorrow =12 err =0
#  x = 1 today =12 tomorrow =13 err =0
#  x = 1 today =13 tomorrow =14 err =0
#  x = 1 today =14 tomorrow =15 err =0
#  x = 1 today =15 tomorrow =16 err =0
#  x = 1 today =16 tomorrow =17 err =0
#  x = 1 today =17 tomorrow =18 err =0
#  x = 1 today =18 tomorrow =19 err =0
#  x = 1 today =19 tomorrow =20 err =0
#  x = 1 today =20 tomorrow =21 err =0
#  x = 1 today =21 tomorrow =22 err =0
#  x = 1 today =22 tomorrow =23 err =0
#  x = 1 today =23 tomorrow =24 err =0
#  x = 1 today =24 tomorrow =25 err =0
#  x = 1 today =25 tomorrow =26 err =0
#  x = 1 today =26 tomorrow =27 err =0
#  x = 1 today =27 tomorrow =28 err =0
#  x = 1 today =28 tomorrow =29 err =0
#  x = 1 today =29 tomorrow =30 err =0
#  x = 1 today =30 tomorrow =31 err =0
#  x = 1 today =31 tomorrow = 1 err =0
#  x = 1 today = 0 tomorrow = 1 err =1
#  x = 1 today = 1 tomorrow = 2 err =0
#  x = 1 today = 2 tomorrow = 3 err =0
#  x = 1 today = 3 tomorrow = 4 err =0
#  x = 1 today = 4 tomorrow = 5 err =0
#  x = 1 today = 5 tomorrow = 6 err =0
quit -sim
cd ../../
cd p34_pentaHalfAdder 
do run.do 
# Model Technology ModelSim ALTERA vlog 6.3g_p1 Compiler 2008.08 Aug 13 2008
# -- Compiling module PHA
# -- Compiling module tb
# 
# Top level modules:
# 	tb
# vsim work.tb 
# Loading work.tb
# Loading work.PHA
#  0 +0 = 00
#  0 +1 = 01
#  0 +2 = 02
#  0 +3 = 03
#  0 +4 = 04
#  1 +0 = 01
#  1 +1 = 02
#  1 +2 = 03
#  1 +3 = 04
#  1 +4 = 10
#  2 +0 = 02
#  2 +1 = 03
#  2 +2 = 04
#  2 +3 = 10
#  2 +4 = 11
#  3 +0 = 03
#  3 +1 = 04
#  3 +2 = 10
#  3 +3 = 11
#  3 +4 = 12
#  4 +0 = 04
#  4 +1 = 10
#  4 +2 = 11
#  4 +3 = 12
#  4 +4 = 13
quit -sim
cd ../p35_pentaFullAdder 
do run.do 
# Model Technology ModelSim ALTERA vlog 6.3g_p1 Compiler 2008.08 Aug 13 2008
# -- Compiling module PHA
# -- Compiling module PFA
# -- Compiling module tb
# 
# Top level modules:
# 	tb
# vsim work.tb 
# Loading work.tb
# Loading work.PFA
# Loading work.PHA
#  0 +0+0= 00
#  0 +0+1= 01
#  0 +0+2= 02
#  0 +0+3= 03
#  0 +0+4= 04
#  0 +1+0= 01
#  0 +1+1= 02
#  0 +1+2= 03
#  0 +1+3= 04
#  0 +1+4= 10
#  0 +2+0= 02
#  0 +2+1= 03
#  0 +2+2= 04
#  0 +2+3= 10
#  0 +2+4= 11
#  0 +3+0= 03
#  0 +3+1= 04
#  0 +3+2= 10
#  0 +3+3= 11
#  0 +3+4= 12
#  0 +4+0= 04
#  0 +4+1= 10
#  0 +4+2= 11
#  0 +4+3= 12
#  0 +4+4= 13
#  1 +0+0= 01
#  1 +0+1= 02
#  1 +0+2= 03
#  1 +0+3= 04
#  1 +0+4= 10
#  1 +1+0= 02
#  1 +1+1= 03
#  1 +1+2= 04
#  1 +1+3= 10
#  1 +1+4= 11
#  1 +2+0= 03
#  1 +2+1= 04
#  1 +2+2= 10
#  1 +2+3= 11
#  1 +2+4= 12
#  1 +3+0= 04
#  1 +3+1= 10
#  1 +3+2= 11
#  1 +3+3= 12
#  1 +3+4= 13
#  1 +4+0= 10
#  1 +4+1= 11
#  1 +4+2= 12
#  1 +4+3= 13
#  1 +4+4= 14
#  2 +0+0= 02
#  2 +0+1= 03
#  2 +0+2= 04
#  2 +0+3= 10
#  2 +0+4= 11
#  2 +1+0= 03
#  2 +1+1= 04
#  2 +1+2= 10
#  2 +1+3= 11
#  2 +1+4= 12
#  2 +2+0= 04
#  2 +2+1= 10
#  2 +2+2= 11
#  2 +2+3= 12
#  2 +2+4= 13
#  2 +3+0= 10
#  2 +3+1= 11
#  2 +3+2= 12
#  2 +3+3= 13
#  2 +3+4= 14
#  2 +4+0= 11
#  2 +4+1= 12
#  2 +4+2= 13
#  2 +4+3= 14
#  2 +4+4= 20
#  3 +0+0= 03
#  3 +0+1= 04
#  3 +0+2= 10
#  3 +0+3= 11
#  3 +0+4= 12
#  3 +1+0= 04
#  3 +1+1= 10
#  3 +1+2= 11
#  3 +1+3= 12
#  3 +1+4= 13
#  3 +2+0= 10
#  3 +2+1= 11
#  3 +2+2= 12
#  3 +2+3= 13
#  3 +2+4= 14
#  3 +3+0= 11
#  3 +3+1= 12
#  3 +3+2= 13
#  3 +3+3= 14
#  3 +3+4= 20
#  3 +4+0= 12
#  3 +4+1= 13
#  3 +4+2= 14
#  3 +4+3= 20
#  3 +4+4= 21
#  4 +0+0= 04
#  4 +0+1= 10
#  4 +0+2= 11
#  4 +0+3= 12
#  4 +0+4= 13
#  4 +1+0= 10
#  4 +1+1= 11
#  4 +1+2= 12
#  4 +1+3= 13
#  4 +1+4= 14
#  4 +2+0= 11
#  4 +2+1= 12
#  4 +2+2= 13
#  4 +2+3= 14
#  4 +2+4= 20
#  4 +3+0= 12
#  4 +3+1= 13
#  4 +3+2= 14
#  4 +3+3= 20
#  4 +3+4= 21
#  4 +4+0= 13
#  4 +4+1= 14
#  4 +4+2= 20
#  4 +4+3= 21
#  4 +4+4= 22
